…
This indicates that we can get a dataset called `athaliana_eg_gene` of the genome annotation version `TAIR10` from the `plant_mart` mart. 

Let's see how many different information fields we can retrieve from the `arabidopsis_eg_gene` dataset.
~~~
arabido_attributes = 
  biomartr::organismAttributes("Arabidopsis thaliana") %>% 
  filter(dataset == "athaliana_eg_gene")
arabido_attributes
~~~
{: .language-r}


~~~
# A tibble: 2,574 x 4
   name                  description              dataset           mart       
   <chr>                 <chr>                    <chr>             <chr>      
 1 ensembl_gene_id       Gene stable ID           athaliana_eg_gene plants_mart
 2 ensembl_transcript_id Transcript stable ID     athaliana_eg_gene plants_mart
 3 ensembl_peptide_id    Protein stable ID        athaliana_eg_gene plants_mart
 4 ensembl_exon_id       Exon stable ID           athaliana_eg_gene plants_mart
 5 description           Gene description         athaliana_eg_gene plants_mart
 6 chromosome_name       Chromosome/scaffold name athaliana_eg_gene plants_mart
 7 start_position        Gene start (bp)          athaliana_eg_gene plants_mart
 8 end_position          Gene end (bp)            athaliana_eg_gene plants_mart
 9 strand                Strand                   athaliana_eg_gene plants_mart
10 band                  Karyotype band           athaliana_eg_gene plants_mart
# … with 2,564 more rows
…
